
   Solution Cp7More

   • Cp71OpOverload —

   • Cp72TplClass —

   • Cp73MultInher —

   • Cp741Container —

   • Cp742Iterators —

   • Cp743Algos —


   ——————————————————————————————————————————————
   [file 20200911°0702 solution 20200911°0701] ܀Ω
