
   Solution Cp6Meta

   • Cp61CopmpiCalc —

   • Cp62TypeInfo —

   • Cp63ExTempls —

   • Cp64ConstIf —


   ——————————————————————————————————————————————
   [file 20200911°0302 solution 20200911°0301] ܀Ω
