{
   "_fileinfo" : { "id" : "20160612°0141"
      , "encoding" : "UTF-8-without-BOM"
      , "callers" : "/daftari/docs/slideshow.html"
      , "note :" : ""
   }
  , "slideshow" :
     [ "./../docs/imgs26/20180924o1114.coucang.v1.p25q66.jpg", "", "Coucang, the Javan slow loris"
     , "./../docs/imgs26/19730815o1234.schwan.v1.p12q33.jpg", "", "Swan"
     , "./../docs/imgs26/19810705o1703.prismlogo.v1.p99q66.jpg", "", "Prism view"
     , "./../docs/imgs26/19821008o1922.interferenz.v1.p12q33.jpg", "", "Interference"
     , "./../docs/imgs26/19910805o0712.testbild2.v0.png", "", "Test image two"
     , "./../docs/imgs26/20040101o1826.weihnbach2.v1.p50q33.jpg", "", "Stream"
     , "./../docs/imgs26/20070811o1544.p0925.v1.x0360y0360.jpg", "", "Chaos Communications Camp 2007"
     , "./../docs/imgs26/20080106o0048.dscf0433.v1.p99q33.jpg", "", "Omega"
     , "./../docs/imgs26/20080817o0044.p1010939.v1.p25q85.jpg", "", "Moon"
     , "./../docs/imgs26/20090816o1441.icefallhires.v1.p50q33.jpg", "", "Icefall High Res"
     , "./../docs/imgs26/20090902o1036.squirrel.v0.p50q33.jpg", "", "Squirrel"
     , "./../docs/imgs26/20090917o1214.n523.v1.x0360y0360q85.jpg", "", "Speisepilz"
     , "./../docs/imgs26/19810705o1157.margueritelogo.v2.p50q33.jpg", "", "Margerite"
     , "./../docs/imgs26/20091201o2228.noki620.v1.p50q33.jpg", "", "Fire pit"
     , "./../docs/imgs26/20100106o1716.noki664cut.v0.x0640y0640q66.jpg", "", "Lichter"
     , "./../jsi/imgs23/20100828o1621.blocconotes.v1.x0180y0180.gif", "", "Blocco Notes"
     , "./../docs/imgs26/20160612o0135.slidefive.v1.p50.png", "", "Slide Five"
     , "./../docs/imgs26/20160612o0134.slidefour.v1.p50.png", "", "Slide Four"
     , "./../docs/imgs26/20160612o0133.slidethree.v0.p50.png", "", "Slide Three"
     , "./../docs/imgs26/20160612o0132.slidetwo.v1.p50.png", "", "Slide Two"
     , "./../docs/imgs26/20160612o0131.slideone.v1.p50.png", "", "Slide One"
     ]
}
