   ****************************
   Daftari changes and versions
   ****************************


   version 0.7.8.i — 20240509°0911 'CSS'
   • Little changes in daftari.css
   ⬞

   version v0.7.8 — 20240429°0911 'Update libraries'
   • Eliminate rule IconFloat24Left [chg 20230427°0941 v0.7.7.g]
   • Update CanvasGear from v0.2.7 to v0.2.9
   • Update FadeInFiles from v0.3.3.b to v0.4.0
   • Update SlideGear from v0.1.4 to v0.1.5
   • Update trektautils.js to v0.2.9 — 20240428°1911 'Saveguard' [chg 20240428°1905]
   ⬞

   v0.7.7.g — 20240411°1741 'Intermediate'
   • Last before stirring up libraries
   ⬞

   v0.7.7.f — 20240411°1741 'Intermediate'
   • Replace style 'Subchaps3List' by 'SubChapters23Divs'
   • Process MatrixPoleRight class
   • Delete 3 discarded CSS files
   ⬞

   ////v0.7.7.e — 20240411°1711 — Intermediate
   ⬞

   ////v0.7.7.d — 20240329°1351 — Process MatrixPoleRight class
   ⬞

   ////v0.7.7.c — 20240328°0931 — Adjust
   ////• Delete 3 discarded CSS files
   ⬞

   ////v0.7.7.b — 20240221°0911 — Adjust
   ⬞

   v0.7.7 — 20240104°0911 — Adjustments
   • Adjust CSS and year
   • Little CSS changes
   ⬞

   ////v0.7.6.n2 — 20231116°1212 — Little CSS changes
   ⬞

   v0.7.6.n — 20231009°1251 —
   • Solved issue 20231008°1331 'Session cannot be started'
   • Little CSS changes
   ⬞

   ////v0.7.6.m — 20231005°1131 — Little CSS changes
   ⬞

   ////v0.7.6.k — 20230908°1411 — Little CSS changes
   ⬞

   v0.7.6.j — 20230805°1111 — Adjust and merge styles
   • Little refactoring of daftari.css
   • Merge boxes.css, navibars.css, scripts.css into daftari.css
   ⬞

   ////v0.7.6.i — v20230731°1234 — Little CSS changes
   ⬞

   ////v0.7.6.h — v20230712°1311 — Little CSS changes
   ⬞

   ////v0.7.6.g — v20230709°0911 — Little refactoring of daftari.css
   ⬞

   v0.7.6.f — v20230612°1311 —
   • Add boxes.css and striking.css
   • Adjust daftari.css
   ⬞

   ////v0.7.6.e — v20230520°1421 — Adjust daftari.css
   ⬞

   v0.7.6.d — v20230414°1231 — Add fonts
   • Add fonts 'Roboto *'
   • Add page 20230414°1111 styles_fonts.html
   • Rename courses.css to scripts.css
   ⬞

   ////v0.7.6.c — v20230310°1211 — Rename file
   ////• Rename courses.css to scripts.css
   ⬞

   v0.7.6.b — v20230307°1313 — Introduce CSS custom props
   • Introduce CSS custom properties [seq 20230307°1221 'Define color schemas']
   • Rename CSS class 20200201°0031 from 'CodeBox' or 'BoxForCode' to 'Box11Code' [chg 20230307°1151]
   • Solved issue 20230307°1141 'Daftari folder must not be renamed' [chg 20230307°1143]
   ⬞

   version v0.7.6 — 20230222°1431 — Just CSS
   • Add file 20230220°0907 navibars.css
   ⬞

   version v0.7.4 — 20220910°0921 — Just CSS
   • Just little CSS changes
   ⬞

   version 20220606°1541 — v0.7.3 — First PHP8 experiences
   • Fix 20220606°1531 adjusts for PHP 8
   ⬞

   version 20220321°1311 — v0.7.2.e — Intermediate
   • Finetune some styles
   ⬞

   version 20220311°1711 — v0.7.2.d — Intermediate
   • Just some cleanup
   ⬞

   version 20220311°1711 — v0.7.2.c — Intermediate
   • Little changes in daftari.css
   • Introduce narrow font Eirene.otf/ttf/woff
   • Introduce rule 20220311°1621 BoxForSuite
   • Introduce rule 20220311°1631 BoxWithCaption
   ⬞

   version 20220309°0931 — v0.7.2.b — Intermediate
   • ModPopDialgo Probes 1 and 2 are working
   ⬞

   version 20220307°1121 — v0.7.2 — ModPopDialog v0.1.6
   • ModPopDialog v0.1.6 first simple use
   • Browser compatibility reduction, starting to use `let` instead `var`
   • Replace `܀` by `⬞` in documentation
   ⬞

   version 20220222°0841 — v0.7.1.g — Restore login
   • Restored session_start function [seq 20220222°0821, log 20220222°0823]
   • Introduce Null Coalescing operator.
      Now compatibility is minimum version PHP 7.0 [line 20220222°0811]
      Or rather say PHP 7.4, this includes the 'null coalescing assignment '??='.
   ⬞

   version 20220221°0931 — v0.7.1.f — PageTerminal proof-of-concept
   • Breaking change: First use of 'let' (see line 20220220°1041)
   • First use of ES6 Template Literals (see line 20220221°0711)
   • Tweak AJAX behaviour (see chg 20220221°0911)
   • Start finegrain page menu item switches (see seq 20220221°0851) Using 'let'
   • Adjust some styles in daftari.css
   ⬞

   version 20220129°1311 — v0.7.1.d 'Ongoing'
   • Adjust some styles in daftari.css
   ⬞

   version 20211210°1753 — v0.7.1 'Ongoing'
   • Update FadeInFiles to v0.3.3.b [chg 20211205°0911]
   • Shift ruleset 20210827°2021 BoxForTwoColContent to daftari.css
   • Rule 20160617°0211 div.ChapterFaceNormal made wider
   ⬞

   chg 20211201°1616 — v0.6.9.k.2 — Intermediate
   • Adjust CSS -- Eliminate implicit BoxForLink first-div-rule
      in favour of explicit rule 20211201°1621 AboveBoxCaption
   ⬞

   chg 20211127°1921 — v0.6.9.k — Intermediate
   • Adjust CSS
   ⬞

   version 20210828°1111 — v0.6.9.j — Intermediate
   • Just some little CSS changes
   ⬞

   version 20210608°0511 — v0.6.9.h — Intermediate
   • In FadeInFiles, switch option 'tables' on [chg 20210605°1521]
   ⬞

   version 20210522°0911 — v0.6.9.g.2 — Minor CSS adjustments
   • Eliminate linkDead, linkDeadGray if favour of capitalized flavour
   • 'Add child operator' in ruleset 20140726°1131 IconFloat23Left [chg 20210521°1441]
   ⬞

   version 20210520°0911 — v0.6.9.g — Clear image files
   • Shift away image files (0.7 MB)
   ⬞

   version 20210519°0931 — v0.6.9.f — No more Lingos area fallback
   • Fix issue 20210518°1111 'Phrase has octothorp' with seq 20210518°1131
   • Restructure image folders
   • Outsource Moonwalk 
   • Re-adjust IDs 'i20..' to 'id20..'
   • Use library ModPopDialog minified-only
   • Eliminate ID 'lingos_selection_area' [chg 20210518°1611]
   • Retire 'DaftariMainMenuIcon_id20120827o0314' [chg 20210518°1631]
   • Use div id='DaftariMainMenuIcon_20120827o0314' instead span [chg 20210518°1641`01]
   • Change Daftari-Main-Menu-Icon position algorithm [chg 20210518°1641`02]
   • No more fallback for missing Lingos area [chg 20210519°0921]
   ⬞

   version 20210518°0911 — v0.6.9.d — Outsource Moonwalk 
   ⬞

   version 20210517°1255 — v0.6.9.c — Streamline 'undefined' use
   • Fix need for DAF_SETTINGS in sitmapdaf.js by correcting undefined check
   • Streamline 'undefined' usage [chg 20210517°1111]
   •
   ⬞

   version 20210516°1515 Daftari v0.6.9.b — Cleanup third-party-modules
   • Shutdown `process_tigratreeview();` and associates [chg 20210516°1211]
   • trektautils.js version 20210516°1331 'Cleanup'
   • Update CanvasGear to v0.2.6 minified-only without the documentation
   • Update FadeInFiles to v0.3.2 minified-only
   • Update SlideGears to v0.1.3 minified-only
   ⬞

   version 20210516°1111 Daftari v0.6.9.0 — Third-party-modules minified only
   • Use FadeInFiles v0.3.1 with reduced lib folder [chg 20210515°1811]
   • Use PurpleTerms v0.3.2 with reduced lib folder [chg 20210515°1111]
   • Chg 20210516°0911 'Third-party-libs use minified versions only'
   • Callers of pullScriptBehind must decide on minification [chg 20210516°0941]
   • General module trektautils.js version 20210516°0951 — Callers must decide
      (Implanted only in daftari.js so far, not yet forwarded to the other users.)
   ⬞

   commit 20210428°1223 v0.6.8.y.2 — Tiny adjust
   ⬞

   note 20210430°1421 — Summary of eliminated styles
   Eliminated styles chg 20210428°0911 and chg 20210415°0917
    ◦ answer                     => QnaAnswer
    ◦ attention                  => FontAttention
    ◦ attentionSmall             => N/A
    ◦ codeLarge                  => CodeLarge
    ◦ codeMedium                 => CodeMedium
    ◦ codeMicro                  => CodeMicro
    ◦ codeNormal                 => CodeNormal
    ◦ codePlain                  => n/a
    ◦ codeSmall                  => CodeSmall
    ◦ codeTiny                   => CodeTiny
    ◦ folie            (td)      -> td.Folie                     -- ELIMINATE
    ◦ fontHandwrite              => FontHandwrite
    ◦ fontKeycap                 => FontKeyCap
    ◦ fontTty                    => FontTty
    ◦ fontTtyAttention           => FontAttention
    ◦ FontTtyAttention           => FontAttention
    ◦ fontTtyLarge               => FontTtyLarge
    ◦ fontTtyMedium              => FontTtyNormal
    ◦ fontTtyPlain               => n/a
    ◦ fontTtySmall               => FontTtySmall
    ◦ fontTtySmaller             => FontTtyTiny
    ◦ fontTtyGray                => N/A
    ◦ fontTtyInfo                => N/A
    ◦ fontFat                    => FontFat
    ◦ fontItalic                 => FontItalic
    ◦ fontLarge                  => FontLarge                        20141115o1731.extern.png
    ◦ fontLarger                 => FontHuge
    ◦ fontLogEntry               => FontLogEntry
    ◦ fontSmall                  => FontSmall
    ◦ fontSmaller                => FontTiny
    ◦ fontTodo                   => FontTodo
    ◦ Footer2Imprint             -> Footer23Imprint
    ◦ Footer2Referer             -> Footer23Referer
    ◦ Footer2Update              -> Footer23Update
    ◦ footerImprint              -> Footer23Imprint
    ◦ footerReferer              -> Footer23Referer
    ◦ FooterReferer              -> Footer23Referer
    ◦ footerUpdate               -> Footer23Update
    ◦ goodbye                    -> GoodBye
    ◦ headCount                  => Numbering
    ◦ iconFloat22Left            -> IconFloat25Left
    ◦ IconFloat24Left (p)        -> p.IconFloat25Left (for div.IconFloat24Left is left available)
    ◦ IconFloat25Left            => IconFloat23Left
    ◦ IconFloat25Sub             => IconFloat23Sub
    ◦ imageCenter                => ImageCenter
    ◦ imageSelf                  => n/a
    ◦ imageSub                   => n/a
    ◦ invisible                  => Invisible
    ◦ linkdescr        (td)      -> td.LinkDescr
    ◦ linklogo         (td)      -> td.LinkLogo
    ◦ linkstatus       (td)      -> td.LinkStatus
    ◦ listIconFloatLeft1         => IconFloat24Left              -- e.g. in Thr_0800.html
    ◦ listIconFloatLeft2         => IconFloat23Left
    ◦ pageMark21Hand             -> PageMark23Chain
    ◦ ParaSmallGreen             => n/a
    ◦ pCommentBlockEntry         => CommentBlockEntry
    ◦ pCommentBlockHeader        => CommentBlockHeader
    ◦ phpError                   => PhpError
    ◦ phraseBelowIs              => PhraseBelowIs
    ◦ phraseReferTo              => PhraseReferTo
    ◦ pictureSelf                -> ImageCenter
    ◦ pictureSub                 -> (replace by br)
    ◦ qnaanswer                  => QnaAnswer
    ◦ qnaAnswer                  => QnaAnswer
    ◦ qnaquestion                => QnaQuestion
    ◦ qnaQuestion                => QnaQuestion
    ◦ question                   => QnaQuestion
    ◦ stampTimestampBlock        => TimestampBlock
    ◦ session                    => ParaSession
    ◦ textfileobject             => ParaTextFileObject
    ◦ timestamp                  => FontTimestamp
    ◦ Timestamp                  => FontTimestamp
    ◦ todo                       => FontTodo
    ◦ Todo                       => FontTodo
    ◦ topLogoRightPlain          -> TopLogoRightPlain
    ◦ TopLogoRightPlain (div)    -> p.TopLogoRightPlain (?)
    ◦ topTitleCaption            -> {drop it}
    ◦ topTitleCrumbs             -> TopTitleCrumbs
    ◦ treemenu         (td)      -> td.TreeMenu
    ◦ zenter                     => TblZenter99p
    ◦ zenter           (td)      -> td.TblZenter
    ◦ zenter80p                  => TblZenter80p
    ◦ zenternoborder   (td)      -> td.ZenterNoBorder -- shift to styleslocal.css
   ⬞


   version 20210429°1111 v0.6.8.y — Big wash
   • Shutdown file tree_tpl.js [chg 20210428°1511]
   • Revamp and complete Python build scipts [hg 20210427°1811]
   • Library upgradings :
    ◦ TerminalJs 20210429°0931 v0.2.5
   • Eliminate 'DEFAULT_LINGO_20200106o0315' feature 20210416°1524
   • Breaking changes — Eliminate ~60 rules in daftari.css see list
     in note 20210430°1421 — Eliminated rules [chg 20210428°0911]
   ⬞

   version 20210428°1223 v0.6.8.w — Quite big wash — Discarded
   • Note — TerminalJs broken in tools.html
    ◦ daftari.css       20210428°1021
    ◦ TrektaUtils       20210428°1031 v0.2.5
    ◦ CanvasGear        20210428°1041 v0.2.5
    ◦ DropDown          20210428°1051 v0.2.1
    ◦ FadeInFiles       20210428°1111 v0.2.9
    ◦ ModPopDialog      20210428°1121 v0.1.0
    ◦ SlideGear         20210428°1131 v0.1.2
    ◦ TerminalJs        20210428°1141 v0.2.4 broken
    ◦ TigraTreeMenu     20210428°1151 v0.2.5
   ⬞

   version 20210426°1131 v0.6.8.v.5
   • Fix fadeinfiles.js minification flavour loading [chg 20210426°0941]
   • Update FadeInFiles to v0.2.8 20210426°1041
   • Update CanvasGear to v0.2.4 20210426°1121
   ⬞

   version 20210426°0951 v0.6.8.v.4
   • Fill in FadeInFiles v0.2.7 20210426°0931 [chg 20210426°0941]
   ⬞

   version 20210425°1711 v0.6.8.v.3
   • Not sure all is fine
   ⬞

   version 20210420°1111 v0.6.8.v.2
   • Run jigsaw.w3.org/css-validator
   • Discard yellowcenteredbox.css in favour of project 20180621°0107 YellowPlates
       https://www.trekta.biz/svn/demoshtml/trunk/cssdings/yellowplates.html
   ⬞

   version 20210418°1151 v0.6.8.u.5
   • Cleanup CSS in Daftari HTML files (see note 20210418°1411 Styles capitalization)
   ⬞

   version 20210418°1151 v0.6.8.u.4
   • Settle FadeInFiles v0.2.4 20210418°1121
   ⬞

   version 20210417°1515 v0.6.8.u.3
   • Rename daftari/jslibs/fadeinfiles/trekta-utils.js to daftari/jsi/trektautils.js
   • Workaround for issue 20210417°1011 'markdown fade-in fails'
   • Streamline annotations
   • Encounter issue 20210417°1411 'GoCloCom warnings with @const annotation'
   ⬞

   version 20210416°1815 v0.6.8.u.2
   • Exchange '<br />' by '<br>', '<img .. />' by '<img ..>' in dafsitmap.js
   • Dismantle flag 20200104°0422 b_SITMAPDAF_USE_JSON [r2101]
   • Fix issue 20210416°1311 'Default Lingo fail'
   • Discard daftari/docs/sitmaplangs.json
   • Rename var PAGENODES to DAF_PAGENODES [chg 20210416°1611 breaking change!]
   • Rename var TREE_TPL to DAF_TREE_TPL [chg 20210416°1612]
   • Start fixing to run GoCloCom with compile level 'ADVANCED'. // [marker 20210416°1633]
     ◦ Fixing until I reach issue 20210416°1711 'GoCloCom warning dangerous this'
     ◦ Fixed ~150 easy cases, ~100 cases left, notably ~80 '[JSC_USED_GLOBAL_THIS]'
     ◦ See issue 20210416°1711 'GoCloCom warning dangerous this'
   • Toggle between compile-level default and advanced (build.py line 20210416°1743)
   • Feature 20210416°1524 'Determine language without cookie'

   ⬞

   version 20210415°1111 v0.6.8.u 'CSS cleanup'
   • Changed/shutdown CSS rules [chg 20210415°0917] see 
   ⬞

   version 20210306°1313 v0.6.8.t intermediate
   • rule 20210103°0711 Daftari main menu icon appearance
   • just som trivia
   ⬞

   version 20201228°1611 v0.6.8.s
   • User Manual cleanup
   • Restructure folders (see file 20201219°1311 SVNSHIFTFILES.bat)
   • Finish todo 20200103°0255 'use sitmaplangs.js instead sitmaplangs.json'
   • Solve issue 20201228°1311 'Cookie setting with file protocol'
   • LocalStorage display on page 20120609°1722 tools.html block 'id20201228o1407'
   • fadeinfiles.js v0.2.1.c 20201228°1555
   ⬞

   version 20201218°1721 v0.6.8.p
   • Refactor build.py
   • Changes in daftari.css
   ⬞

   version 20201203°1521 v0.6.8.m
   • Delete library daftari/phplibs/phplinq-0.4.0/ [chg 20201203°1151]
   • Bugfix 20201203°1441 in JsiPhysical.php
   ⬞

   version 20201129°1444 v0.6.8.k
   • In manual HTML start with consequent indent-one-blank-per-level
   • In JS/PHP allow to indent closing tag of DafFurnitureCakecrumbs_Bag div [const 20201129°1417]
   • Experimentally allow Edge for static-baking [experiment 20201129°1413]
   • Cleanup quattro-slashes
   ⬞

   version 20201129°0921 v0.6.8.j — Keep this tag, it's last before quattro-slashes-cleanup
   //version 20201114°0241 v0.6.8.i r2027
   • Parameterize autoflick start [chg 20201114°0231]
   • Adjust all 'id20*' to 'i20*'
   ⬞

   version 20201113°0451 v0.6.8.f
   • Use FadeInFiles v0.2.3
   ⬞

   version 20201011°1241 v0.6.8.e
   • New ruleset 20201011°1221 'IconFloat24Left' replacing rules 'iconFloat22Left' and 'iconFloat23Left'
   • Work on rule 20200201°0023 'IconFloatInlineImage'
   ⬞

   version 20200806°2121 Daftari v0.6.8.b
   • Minor cleanups
   ⬞

   version 20200806°1931 Daftari v0.6.8.a
   • Update/shift jQuery from v3.3.1 to v3.5.1
   • Update fancytree from v2.30.2 to v2.36.1 [dld 20200805°1311]
   ⬞

   chg 20200806°1911 adjust for jquery/fancytree update with shiftings
   ⬞

   version 20200805°1121 Daftari v0.6.7.z
   • Further changes in daftari.css
   • Last version before shifting fancytree
   ⬞

   version 20200413°1131 Daftari v0.6.7.v
   • Activate TFDDM for element menu, shutdown old 'mopen' dropdown menu (see marker 20200410°0821)
   • Feature 20200413°1127 'fadeinfiles make no editpoints'
   • In daftari.css e.g. p.FooterReferer [v0.6.7.u 20200410°0751]
   • In TFDD some clean up [v0.6.7.u 20200410°0751]
   ⬞

   version 20200106°0327 Daftari v0.6.7.c
   • Fix 20200105°0515 — Ease 'sitemap wrong' situations
   • Fix 20200106°0123 — Inline-edit
   • Add feature 20200106°0315 'page specific default language'
       {Replaced by feature 20210416°1524 'Determine language without cookie'}
   ⬞

   version Daftari v0.6.7 20200104°0515 'Settle as is' [r1939]
   • Eliminate checkbox 'Append startuplog' setting [chg 20200103`0111]
   • Start with todo 20200103°0411 'make modpopdialog run'
   • Start with todo 20200103°0255 'use sitmaplangs.js instead .json'
   ⬞

   version 20190801°0511 Daftari v0.6.6.q 'Introduce ModPopDialog' [r1932] {used}
   ⬞

   version 20190501°0513 Daftari v0.6.6.p 'Modal42 not ready' [r1931] {tmp}
   ⬞

   chg 20190429°0145 fix cookie quirk [r1215]
   ⬞

   chg 20190429°0143 restructure docs folder [r1910..r1214]
   ⬞

   chg 20190426°0107 implement new modal dialog (r1897 ..)
   ⬞

   chg 20190424°0111 replace original dropdown menus by TFDDM (r1877 ..)
   ⬞

   Daftari v0.6.6.m — 20190422°0311 'slideshow fixes'
   ⬞

   Daftari v0.6.6.g — 20190421°0152 'arrows for satellite sites'
   • chg 20190421°0123 fix issue 20190312°0411 'arrows broken on satellite sites'
   ⬞

   ✱ Daftari v0.6.6.f — 20190420°0644 'navigation turnaround' r1868
   ⬞

   chg 20190420°0617 'navigation arrows turnaround'
   • Supplement the navigation arrows turnaround links on the first
      and last page (see locations 20190420°061*)
   ⬞

   chg 20190420°0511 'simplify folder structure' r1855 .. r1863
   • Eliminate folder daftari/moonwalk by shifting pages
   • Shift other files ..
   ⬞

   Daftari v0.6.6.e — 20190420°0353 'autoflick'
   ⬞

   Daftari v0.6.6.d — 20190419°0155 'aloha' (clean up comments)
   ⬞

   Daftari v0.6.6.c — 20190419°0153 'fix issue 20190419°0111 crumb url'
   ⬞

   Daftari v0.6.6 — 20190418°0347 'no more synchronous Ajax'
   • chg 20190418°0331 'all ajax asynchronous, no more synchronous'
   • ↯ issue 20190419°0111 'crumb link target url double localhost'
   ⬞

   chg 20190417°0541 'refactor dispatching'
   • Now func 20110813°2221 Daf.Core.daftari directly acts as dispatcher
   • Retire 20190417°0453 class 20180322°0511 Daf.Dspat.Fiture
   • Retire 20190417°0451 func 20190411°0531 Daf.Dspat.executeScriptLevelCode
   ⬞

   chg 20190417°0321 'discard reading sitmapdaf.xml'
   note : Discarded func 20150515°1241 sitmapWorkoff_process_Cakecrumbs1 had
     some example lines on parsing an XML file, which are thrown away anyway.
   see : ref 20150516°0112 'WebDevTutsDepot → Read XML using JQuery'
   see : ref 20150516°0111 'stackoverflow → Parse XML using jQuery'
   see : ref 20150515°1723 'jQuery API → jQuery.parseXML()'
   see : ref 20150515°1722 'stackoverflow → convert string to XML object'
   ⬞

   chg 20190417°0225 Restrict static-cake-baking for browsers,
     see issue 20190417°0211 'IE10 is messing innerHTML'
   ⬞

   chg 20190417°0223 Get going 20180512°0711 Daf.Mnu.Meo.execPage11OpenLocalEditor1Reqest
   ⬞

   chg 20190417°0221 Get going func 20190405°0231 Trekta.Utils.ajax3Send
   ⬞

   ✱ v0.6.5.i — 20190416°0645 'bake-static-cakecrumbs'
   • Feature 'bake-static-cakecrumbs' is applicable
   • Lingos algorithm enhanced (func 20190416°0411)
   ⬞

   ᛋ v0.6.5.g — 20190415°0557 'bake-static-cakecrumbs'
   note : Static CakeCrumbs work, but each Lingo selection sends unwanted
      Ajax request, the cakecrumbs need to be built with lingos, not plain
   ⬞

   v0.6.5.e — 20190413°0757 'stub for baking static cakecrumbs'
   ⬞

   refactor 20190413°0521 'ttv'
   note : Start to minify and combine tigra-tree-view. But the combined version
      cannot be used yet because tree.js is still called directly from the
      page and then uses document.write. Must get rid of 'document.write()'.
   ⬞

   log 20190413°0412 introduce function 20190413°0411 Daf.Utlis.tabAlign
   ⬞

   v0.6.5.d — 20190413°0222 'reduce page load flash'
   ⬞

   Daftari v0.6.5.c — 20190412°0257 'refactor' (r1769)
   • daftari.min.js was 107 368 bytes before, is now 103 477 bytes
   ⬞

   chg 20190412°0253 — Shift outDbgMsg and get/setCookie Trekta.Utils (r1768)
   ⬞

   chg 20190412°0153 — Eliminate members
   ⬞

   Daftari v0.6.4.b — 20190411°04414 r1748 'Refactor'
   • Daftari script block 20190411°0311, without daftari.css
   • Shift many members from daftari.js to namespace Daf.Mneu.*
   • Rename dafstart.js to dafmenu.js
   ⬞

   Daftari v0.6.3 — 20190408°0217 'Introduce minification'
   ⬞

   v0.6.2.h — 20190407°0751 'Closure Compiler REST API usage'
   • Introduce build.py and Goolge Closure Compiler REST API
   ⬞

   v0.6.2.g — 20190407°0641
   • Bulk fixing after jshint.js
   ⬞

   chg 20190404°0954
   • Restructure folders. Shift file daftari.js down to js folder, shift
      projects CanvasGear and FadeInFiles from daftari/js to daftari/jslibs
   ⬞

   chg 20190404°0953
   • Daftari Script Tags header 'The Ugly' is superfluous, daftari.js
      is left the only script to be included, all others are pulled-behind
   ⬞

   chg 20190404°0657 cookies quickfix
   • Cookie usage was broken • Eliminate jQuery usage on 2 lines
   ⬞

   version — Daftari v0.6.2.e — 20190404°0633 'script-level-pull'
   • Fix TigraTreeView  • Cleanup • script-level-pull works but with flicker
   ⬞

   version — Daftari v0.6.2.d — 20190404°0531
   • Loading strategy script-level-pull works, performance issues must be cleared
   ⬞

   chg 20190404°0251 'eliminate 9 lines from the ugly script block'
   This was done in three steps
    (1) one line by change 20180619°0115 'discontinue IE8 support'
    (2) three lines by func 20190403°0131 process_fancytree
    (5) five lines with new [[20190404°0121]] 20110813°2221 Daf.Core.daftari
   There are three issues with this change so far.
   see : issue 20190404°0253 'noticeable flicker after chain-pull-behind'
   see : issue 20190404°0254 'fade-in-files broken by chain-pull-behind'
   see : issue 20190404°0255 'Tigra Tree broken by chain-pull-behind'
   note : A reason with those issues seems to be timing. My suspect is, that
      pne manually loaded scripts wants some functiona at a time, when the
      chain-pull-behind is not yet ready.
   note : One idea to ease the situations is, the five scripts not to load
      in chain, but in parallel, and each has a flag when it is ready, and
      the conitnuation is done, if all flags are set. Like synchronisation
      with threading.
   see : summary 20190404°0645 'the pull-behind proceedings'
   ⬞

   chg 20190403°0743 'finally get all members into class Daf.Mnu.Pos'
   location : 20161009°0911 Daf.Mnu.Pos.Position
   act : Changed line 20161009°0837 'declare ~inner class'
       from • ⁞ var pos = {}; ⁞  to • ⁞ Daf.Mnu.Pos.pos = {}; ⁞
       and line 20161009°0835 from • ⁞ function resolveObject(s) {.. ⁞
       to • ⁞ Daf.Mnu.Pos.resolveObject = function (s) {.. ⁞
   result : Indeed the 'pos' disppeared from the script level of the
      NetBeans navigator box and went into class Daf.Mnu.Pos, as wanted.
   note : Curiously, if in the namespace declaration, the 'var' is taken off,
       as is done in other namespace definitions, the program will break.
   note : This finally finishes todo 20170902°1341 'shift Position into a namespace'
   ⬞

   version Daftari v0.6.5 — 20190411°0751 'lean script block'
   • Introduce chain-pull-behind (r1664)
   • Eliminate script block 'The Ugly' (r1665)
   • Only three lines in Daftari script block 20190411°0311 'Lean'
   • Reduce fancytree folder (chg 20190403°0311 'reduce fancytree folder')
   • Refactor namespace structure
   ⬞

   chg 20190402°0723 'unify undefined question'
   act : Changed all occurrences en bloc
      from • "dingsda === undefined"
      to • "typeof dingsda === 'undefined'"
   note : This were about 14 occurrences
   ⬞

   chg 20190329°0843 'introcude strict mode'
   • set 'use strict' for all functions
   ⬞

   version v0.6.2 — ~~20190312°0331
   • Fixes
   ⬞

   version v0.6.1 — 20190311°1551 'big refactor'
   ✱ Breaking changes for HTML pages :
      — daftari/php/daftari.php  ⇒ /daftari/php/Go.php
      — sBrick_Breadcrumbs()      ⇒ Trekta\Daftari\Go::wafailiBrick_Breadcrumbs()
      — sWafaili_Brick_UserInfo() ⇒ Trekta\Daftari\Go::wafailiBrick_UserInfo()
   • Shift folder daftari from /trunk/htdocs/ to /trunk/
   • Introduce PHP namespaces
   • Wrap all PHP code in classes
   • Refactor constants.php to Globals.php [r1514 20190127°0513]
   • Refactor gallery-inc-session.php to Session.php
   • Introduce Go.php
   • Introduce Spider.php
   • Introduce Login.php [r1515 20190210°1746]
   • Gallery repair proof-of-concept [r1538 20190206°1711]
   • Update Fancytree to 2.30.2 with jQuery 3.3.1 [r1539]
   ✱ Introduce TerminalJs
   ✱ Introduce Slidegear v0.0.6
   ✱ Introduce Showdown v1.8. proof-of-concept usage
   ⬞

   log 20190124°0525 r1501
   • Refactoring beslide.js worked not as intended
   • Restore beslide.js from v0.5.7.o
   ⬞

   log 20190105°0452 Daftari v0.5.8 tmp
   ⬞

   v0.5.7.p — 20190101°1351 beta (tmp)
   • Line up the pull-behind feature
   • Last version before attempting daftarigo.js
   • Provide zip file for download
   ⬞

   version 0.5.7.o — 20181228°0941 'improve slideshow'
   • Slideshow set size in HTML [chg 20181226°0522]
   • Slideshow add image description [chg 20181226°0523]
   • Cleanup CSS styles
   • Fix Blog-Default-Article issue [seq 20181115°0533]
   ⬞

   chg 20181226°0521 'slideshow' (v0.5.7.n — 20181226°0541)
   • Add option to determine slideshow size directyl in target HTML [chg 20181226°0522 'slideshow size']
   • Add image description field to the images array [chg 20181226°0522 'slideshow image text']
   ⬞

   Daftari 0.5.7.k — 20181028°1111
   • Cleanup styles
   ⬞

   Daftari 0.5.7.i — 20181028°0417
   • Fix Blog-Default-Article issue (see seq 20181115°0533)
   ⬞

   version 0.5.7 — 20181015°2112 (r1444)
   - chg 20181015°2111 'add jquery-ui.custom.js 460 KB to load'
   ⬞

   chg 20181015°2111 'add jquery-ui.custom.js 460 KB to load'
   loc : Daftari Script Block 20170306°0611
   act : Add daftari/jslibs/fancytree/lib/jquery-ui.custom.js to load
   reason : Otherwise FireFox console tells errors "jQuery UI" not found
      and ".. function not found"
   note : This are another 460 KB to load, this is not nice. It can
      be reduced by more exactly analysing what exactly is necessary,
      and how a selection what to load can be made.
   note : Not sure, whether this was a good idea.
   ⬞

   Daftari v0.5.6 — 20180824°1621
   - Start running on PHP 7
   ⬞

   Daftari v0.5.4.f — 20180711°0111 r1431
   - started with Markdown
   - refactor CanvasGear
   - cleanup help pages
   ⬞

   version Daftari — 0.5.4.h 20180622°0333 intermed
   - Cleanup stylesheets
   - HTMLTidy
   ⬞

   chg 20180619°0115 'discontinue IE8 support'
   text : Support for IE8 is discontinued
   note :
   ⬞

   Daftari v0.5.4.b — 20180514°0151
   - Menu item 'Get local page path' in local mode (func 20180512°0711)
   - Fix issue 20180322°0415 's.endsWith fails in IE'
   - Restore/improve blog-fadein-feature
   - Script block change daftari/js.lib to daftari/jslibs
   - Script block change daftari/js/css to daftari/css
   ⬞

   Daftari v0.5.3.v — 20180512°0931 tmp
   - cleanup
   ⬞

   Daftari v0.5.3.u — 20180512°0841 tmp
   - New main menu item 'Open page in local editor'
   note : It does *not* open the file (see issue 20180512°0751), it
      just puts the wanted path in the AJAX debug box from where you
      can pick it to the clipboard for use in any editor's open dialog.
      And of course, this only works on localhost, not online.
   ⬞

   Daftari v0.5.3.t — 20180511°0311 tmp
   - Shift daftari.css from daftari/js/css/ to daftari/
   ⬞

   Daftari v0.5.3.s — 20180509°0411 tmp
   - Fix issue 20180322°0415 's.endsWith fails in IE'
   - Restore/improve blog-fadein-feature
   - In script block change daftari/js.lib to daftari/jslibs
   ⬞

   Daftari v0.5.3.q — 20180325°0311
   - Edit feature starts working (if daftari.DATA/dbtxt/targets.txt is set)
   ⬞

   log 20180325°0307
   - Shift folder daftari/js.lib/ to daftari/jslibs/
   - Shift folder daftari/php/libs/ to daftari/php.libs/
   - todo 20170902°1341 'shift Position into a namespace' done
   - various little fixes
   ⬞

   Daftari v0.5.3.p 20180322°0351 bigger
   - little fixes
   ⬞

   Daftari v0.5.3.o 20180322°0141
   - Start outsource CakeCrumb feature from dafdispatch.js
   ⬞

   Daftari v0.5.3.n 20180315°1121 meanwhile
   - Clean up after issue 20180307°0201 'wrong navigation arrows' not ready yet
   ⬞

   Daftari v0.5.3.m 20180310°1311
   - Fix issue 20180307°0201 'wrong navigation arrows'
   ⬞

   Daftari v0.5.3.i 20180307°0521
   - Fix issue 20180307°0201 'wrong navigation arrows' but introduced bug for Demomatrix
   ⬞

   Daftari v0.5.3.h 20180306°2121
   - Various fixes
   - Simplifications
   - Delete /moon/slideshow.html
   ⬞

   chg 20171004°0551 r1321
   - Tag version 0.5.2 beta
   ⬞

   chg 20171010°1741 (r1319) 'bulk supplement __DIR__'
   - Bulk edit, prefix all includes and requires with '__DIR__.'.
   - Solved issue 20120913°1151 'includes inside includes'
   ⬞

   Daftari version 0.5.1 — 20170926°0311
   - Edit feature works proof-of-concept
   ⬞

   chg 201709010°1711 (r1299) rename folder
   from : daftari/devref/
   to : daftari/moon/
   ⬞

   log 20170821°0201 Daftari version ~0.4.6..
   - Shift Help from daftari/devref/ to daftari/help/
   ⬞

   version Daftari v0.4.5 20170306°0711
   - Daftari Script Block 20170306°0611 'The Ugly'. Breaking.
   - Rename folder pages to help.
   - Split file dafsitmap.js to dafdispatch.js.
   ⬞

   Daftari v0.4.2 intermediate beta — 20161102°1421 (r1260)
   - refactoring and fixes
   - using Daftari Script Block 20161009°0811 'the ugly'
   ⬞

   Daftari v0.4.1 beta — 20160624°0211
   - refactoring and fixes
   ⬞

   chg 20160616°0421 (r1186) rename folder
   from : daftari/devdoc
   to : daftari/devref
   ⬞

   chg 20160615°0442 (r1181) rename folder
   from : daftari/doc
   to : daftari/devdoc
   ⬞

   Daftari v0.4.0.6 alfa — 20160427°0811 (r1120)
   - Simplify folder structure, cleanup files
   - Rename folders daftaridoc to doc, daftarijs to js, daftariphp to php
   - Rename files dftr.js to dafstart.js, dftset.js to dafdash.js
   - Introduce daftaro/dafutils.js
   ⬞

   Daftari v0.4.0.4.9 alfa — 20160417°1331
   - Cakecrumbs working proof-of-concept
   - No more using 'onload="daftari();"' in the body tag, daftari() is called
   -     now via the jQuery(document).ready(function()) [revision 20160417°1231]
   - DafSitemap proof-of-concept working also in IE8 († func 20160416°0511)
   ⬞

   Daftari v0.4.0.4.7 — 20150814°0211 (r1041)
   - Merge work as is to version 0.4.0.4.7.
   - Rename jsi-langsplit.js to daflingos.js [20150429°144102]
   - Rename jsi-sitemap.js to dafsitmap.js [20150429°144103]
   - Namespace Dftr in dftr.js [later renamed to dafstart.js then dafmenu.js]
   - Cookie setting
   ⬞

   Daftari 0.4.0.4.6 — 20150405°1841
   - Introduce span hiding † algo 20150316°0942 using display property
   - Change default language in seq 20150316°0921 [20150405°1831]
   - Adjust lang flags display style in seq 20120831°1311 [20150405°1811]
   ⬞

   Daftari 0.4.0.4.5 alfa — 20150325°1111
   - Determine the main menu popup-direction after the notebook icon position (seq 20150313°1841)
   - Determine the XTB tooltips position after the tooltip location (seq 20150313°2011)
   note : This makes menu and tooltips always visible, even on any edge of the viewport.
   ⬞

   Daftari 0.4.0.4 alfa — 20150224°1921
   - Little fixes
   ⬞

   Daftari 0.4.0.3 alfa — 20150213°0341
   - Big folder restructuring largely settled
   - Probably some disruptions still left
   ⬞

   Daftari 0.4.0.2 release — 20150210°1821
   - https://downtown.trilo.de/svn/daftaridev/tags/20150210°1821.trunk.0.4.0.2
   ⬞

   version 20150210°1011 Daftari v0.4.0.2 dev
   ⬞

   Daftari 0.4.0.1 beta — 20150209°1131)
   - Revamp folder structure, separate JS and PHP
   - Not backward compatible
   ⬞

   log 20141120°0331
   - Summarize small changes of versions '20141119°0231....'
   ⬞

   log 20141119°0241
   - Cleanup stylesjsi.css.
   ⬞

   log 20141119°0231
   - Accompanying FadeInFiles 20141119°0211
   - Introduce camelcase styles like typewriteCommentBig, outcommentedSolid, subchapCol1Title.
   - Rename styles e.g.: attention -> Attention, timestamp -> Timestamp,
      todo -> Todo,  outcommented* -> Outcommented*,  filename -> TTYFilename,
      typewrite -> TTY, typewriteCommentBig -> TTYCommentBig, pictureself -> PictureSelf,
      picturesub -> PictureSub, goodbye -> Goodbye, imprint -> Imprint, footer -> Footer
      footerFile -> FooterFile, footerCopy -> FooterCopy, footerTimst -> FooterTimst.
   ⬞

   Daftari 0.3.0.6 compiled — 20141118°0221
   - Tagged only as compiled folder(s)
   ⬞

   version 20141118°0221 Daftari v0.3.0.5 — 20141017°1611 'dev'
   ⬞

   history 20141116°1411
   File spawned (in daftari/docs/moonwalk.html)
   from : daftaridev/trunk/htdocs/daftari/bin/daftari.js
   to : daftaridev/trunk/htdocs/daftari/js/jsi/daftari.js
   ⬞

    log 20141028°1241 Cleanup and reduce LINT warnings
   ⬞

  Daftari 0.3.0.5 — 20141017°1611 'dev'
   - Add folder daftari/daftarijs/fadeinfiles
   ⬞

   2014-June-06 Daftari 0.3.0.1 release (r70_ 20140606°1711)
   * First release on SourceForge
   * No fuctionality changed, just revamped the HTML files
   ⬞

   2014-May-01 Daftari 0.3.0.0 — 20140501°0131 'intermediate'
   * Shift demo folder inside delivery folder
   * Get the lead out of the demo folder (shift fat files to shadow folder)
   ⬞

   2014-Apr-30 Daftari 0.2.9.7 — 20140430°1111
   * Fix path for lang-flags in subfolders
   * Possibly last version before inhousing daftaridemo.
   ⬞

   2014-Mar-07 Daftari 0.2.9.6 — 20140307°0551
   * Revamp Daftaridemo
   * Revamp repository folder structure
   * Introduce attribute 'hikiulinzi' [later 'data-hikiulinzi']
   ⬞

   log 20140430°0721 Merge back styles2.css
   ⬞

   2013-Apr-14 Daftari 0.2.9.5 — 20130414°1241 (r598)
   * Fixes
   ⬞

   chg 20140307°0431 hikiulinzi
   • Introduce attribute 'hikiulinzi' for HTML elements which shall not be edited.
   ⬞

   chg 20140306°1521 r631
   Tag 20120905o0251.editpointstatic-0184.final (completed in r631)
   ⬞

   log 20140305°1311
   - From the feature list on index.html, two items are removed :
   -- Editranges, the static ranges from Editpointstatic.
       This feature has been abandoned with version 0.2.7.
   -- Editpoints, the dynamic insertions from Todd's Edit-Point 4.01.
       This is a PHP sequence inside the HTML, which inserts text from a textfile
       in a datadir. This feature has been abandoned with version 0.2.7.
   -- You may find back the two features in Editpointstatic, see
       https://downtown.trilo.de/svn/daftaridev/tags/20120905o0251.editpointstatic-0.1.8.4.final/editpointstatic/editpoints.html
   ⬞

   log 20140302°0611 Split off styles2.css
   ⬞

   chg 20121130°1356 Editpointstatic r534 'Intermediate'
   - Tiny cosmetic adjustion, can be forgotten.
   ⬞

   chg 2012-11-11 Daftari 0.2.9.4 — 20121111°1821 (r586 20121112°0319)
   ⬞

   2012-Oct-21 Daftari 0.2.9.3 bugfix [v 20121021°1321]
   * Fix error 'edit table cell writeback to wrong cell'
      because missing 'wafailiskip="yes"' in breadcrumbs.php
   * Cleanup comments
   ⬞

   2012-Oct-06 Daftari 0.2.9.2 — 20121006°1721 'productive'
   * Applicable proof-of-concept
   * Rename project from Wafaili to Daftari
   * Little things
   ⬞

   2012-Sep-06 Wafaili 0.2.8.9 — 20120906°1751 'milestone'
   * Wafaili split off Editpointstatic
   * Lingo feature proof-of-concept
   * Edit feature proof-of-concept
   * Insert feature proof-of-concept
   * Wafaili PHP-one-line-include proof-of-concept
   ⬞

   log 20120905°0533
   Editpointstatic r533 'Tag version 0.1.8.3 — 20120905°0241'
   - Final Editpointstatic tag.
   - This is wanted to be tranferred to Daftari
   ⬞

   log 20120905°0555
   Daftari r529 'Wafaili 0.2.8.7 — 20120905°0251'
   ⬞

   log 20120905°0218
   Editpointstatic r529 'Split Wafaili from Editpointstatic'
   ⬞

   log 20120905°0106
   Edipointstatic/Daftari r528 'Restructure demo'
   - Last common commit between the two
   -- https://downtown.trilo.de/svn/daftari/
   -- https://downtown.trilo.de/svn/editpointstatic/
   ⬞

   2012-Aug-30 Editpointstatic 0.2.8.6.3.e — 20120904°1501 'tinymce'
   * Introduce project name Wafaili
   * Introduce dedicated Login/Settings Window
   * Introduce modal Edit Window
   * Introduce modal Dialog Window
   * Introduce Lingos
   * Shift Edit-Point-Static 0.1.5.1 to separate project
   * Get TinyMCE working inside Edit-Point-Static
   ⬞

   log 20120827°0131 Integrate styles from login.css into stylesjsi.css
   ⬞

   2012-Aug-20 Editpointstatic 0.2.8 — 20120820°0451 'recover'
   * Update TinyMCE to 3.5.6 (has no more TinyBrowser plugin)
   * The Ajax Edit handles dynamic elements marked with
       class=topnavi* or attribute wskip=""
   ⬞

   2012-Aug-19 Editpointstatic 0.2.7.1 — 20120819°1501 'restructure'
   * New feature: Breadcrumbs/Cakecrumbs
   * Restructure folders (some features were temporarily disrupted)
   * Split demo site from program folder
   * Renovate the eps/* files and make them work again
   * Restore TinyBrowser plugin from Edit-Point 4.01 (temporarily)
   * Unify code formatting
   ⬞

   chg 2012-08-14 Wakati r414 20120814°2001
   - Start project Wakati
   - Merge Gallery files to folder 'Wakati'
   ⬞

   2012-May-07 Editpointstatic 0.2.3 — 20120511°2041 'snapshot'
   * Refactore folder structure so updates client side are done
       by exchanging the folder one to one
   ⬞

   chg 2012-01-03 [chg 20120103°1902]
   - Merge files jsi-ajax.js, jsi-bootstrap.js, jsi-position.js
      and jsi-quirkscms.js into one daftari.js.
   The reason is, that actually jsi-bootstrap.js shall be the start file,
   then pulling the other scripts behind. But the pull-behind feature is
   more complicated as expected. To quickly get a working version at all,
   we merged. If the pull-behind feature later may be better working, we
   can split the files into modules again.
   ⬞

   2011-Dec-30 Editpointstatic 0.2.2 — 20111230°1621 'beslide'
   * Edit features of the page menu are becoming applicable
   * Incorporate formerly separate Gallery/Wakati project
   * Introduce slideshow
   ⬞

   chg 20111223°0418 Merge projects
   - Merge various formerly independend PHP and JavaScript projects into Daftari :
   -- Gallery
   -- Jsi-Bootstrap
   -- Jsi-QuirksCms
   -- Langsplit
   -- Paproz
   ⬞

   chg 20110901°0123
   Experimental library modules eps.gallery filled in
   ⬞

   2011-Sep-01 Editpointstatic 0.1.6 — 20110901°0121 'beslide'
   * Introduce new JavaScript page element edit feature
   * The former Edit-Point management structure is retired, one
       single icon is sufficient to reach all features
   ⬞

   2010-Sep-02 Edit-Point-Static 4.01'0.1.5 — 20100902°0221 'beslide'
   * New 'Staticrange' feature, which does not use the separate
       storage text files, but writes into the original HTML file
   ⬞

   chg 20110830°1441 'introduce data dir'
   - Feature 'hold configuration in separate data folder'
      The file eps.config.php is not needed anymore.
      It is replaced by ../editpointstatic.DATA/__editpointstatic__.ini
   The manual backward compatibility measures are
      - Put the new folder editpointstatic.DATA
      - Move the old config.php into the new folder
      - If the new Editpointstatic starts,
      -- It looks for it's inifile
      -- If the inifile is not found, it looks for an old config.php
      -- If the old config.php is found, it reads it out and uses that settings
      -- If the old config.php is not found, it uses built-in default values
      -- An inifile is created from either old config.php or default values
   Similar it's with the data in the datadir
      - Editpoint creates on first start a parallel .DATA direcory
      - The old in-folder data directory is not used anymore
      - copy the files from the old data directory to the newly created .DATA directory
   ⬞

   chg 20110821°2121
   Latest changes
     - Merge Paproz into Editpointstatic
     - Supplement EPS files with prefix eps
     - Code formatting of eps files
     - Point EPS data to separate datadir editpointstatic.DATA
     - (The EPS configuration eps.config.php is still inside editpointstatic progdir)
     - Prepare hook for implementing inifile in separate datadir for storing the configuration
     - Several fixes
   Next steps:
     - EPS: Store configuration in inifile in separate datadir
     - Paproz: Provide automatic backup of changed pages
   ⬞

   chg 20110819°2341
   - Merge JS project https://downtown.trilo.de/demos-js-experiments.html here.
   - Merging Paproz into EditPointStatic will the project fundamentally change.
   - As 'EditPointStatic' is a cumbersome name, renaming is wanted. Proposals:
    -- Editpointstatic, Staticpage, Staticpoint
    -- Paproc (page processor), Paprok, Paproz
   note : 'Paproc' is already used as 'Prediction Algorithm for Proteasomal
            Cleavages' on http://www.paproc.de
   ⬞

   version 2010-Aug-16 Edit-Point 4.01-beta.fixed — 20100816°0131
   * Little fixes to make it applicable
   ⬞

   version 2010-Aug-14 Edit-Point 4.01-beta — 20100814°0151
   - Download Todd Stratmans Edit-Point 4.01 beta
   - Pristine version of Edit-Point 4.01 Beta
   ⬞

   chg 2011-08-10 [chg 20110810°1521]
   - Start project Paproz
   - Merge into Editpointstatic in r49 20110819°2330
   ⬞

   log 20110810°1551 Initial version of stylesjsi.css.
   ⬞

   chg 2011-05-12 [chg 20110512°1331]
   - Start project Langsplit
   - Merge file into r261 20111225°1224
   ⬞

   log 20100822°1321 Major changes
   ⬞

   ———————————————————————
   [file 20141017°1607] ⬞Ω
