
   Solution scratchpad

   • Project scratch1 — Cast operator overload with user defined cast function

   • Project scratch2

   • Project scratch3

   • Project scratch4

   • Project scratch5

   ————————————————————————————————————————————————
   Fileslist:
   20200923°1501 solution
   20200923°1511 project
   20200923°1521 project
   20200923°1531 project
   20200923°1541 project
   20200923°1551 project
   ——————————————————————
   [file 2020923°1502] ܀Ω
