
   Project Cp64ExTempls

   • cp64extpl1main.cpp [file 20200911°0521]

   • cp64extpl2naiv.cpp [file 20200911°0531]

   • cp64extpl3extpl.cpp [file 20200911°0541]


   —————————————————————————————————————————————
   [file 20200911°0512 project 20200911°0511] ܀Ω
