
   Solution Cp2Tplats

   • Cp21FuncTplats —

   • Cp22ClassTplats —

   • Cp23VarTplats —

   • Cp24Specs —

   • Cp251NonTypes —

   • Cp252NonTypes —

   • Cp253NonTypes —

   • Cp254NonTypes —

   • Cp26Functors —

   • Cp27CRTP —


   ——————————————————————————————————————————————
   [file 20200909°1902 solution 20200909°1901] ܀Ω
