﻿
   *** terminaljs ***

   home : http://www.erikosterberg.com/terminaljs/

   sources : https://github.com/eosterberg/terminaljs

   ————————————————————————————————————————————————————————————
   Project log :

   folder 20190208°1911
   url : https://downtown.trilo.de/svn/daftaridev/trunk/htdocs/daftari/jslibs/terminaljs
   title : TerminalJs
   note :
   ⬞

   download 20190208°1844
   downloadfro : https://github.com/eosterberg/terminaljs
   file : terminaljs-master.zip
   see : https://www.trekta.biz/svn/terminaljsdev/tags/20190208o1844.terminaljs
   ⬞

   ———————————————————————
   [file 0190208°1912] ⬞Ω
