﻿
   *** tigra_tree_menu (modified) ***

   ————————————————————————————————————————————————————————————
   Project log :

   folder 20160427°0241
   url : https://downtown.trilo.de/svn/daftaridev/trunk/htdocs/daftari/jslibs/tigra_tree_menu
   title : Tigra Tree Menu (Modified)
   homepage : http://www.softcomplex.com/products/tigra_tree_menu/
   download : 20080426°0501
   license : "This script is free for any kind of applications including
              commercial use. Feel free to modify the script for your  needs.
              Leave the comments with the product information unchanged."
   note : This version is a minimal version, modified by ncm for Daftari.
   ref : See the unchanged complete extraction of the download e.g. on
          https://downtown.trilo.de/svn/daftaridev/trunk/eval/tigra_tree_menu
   note :
   ◦

   ———————————————————————
   [file 20160427°0242] ◦Ω
