
   Project Cp722MultInher

   Pritty simalar to project 20200912°0211 Cp72MultInher,
   just with a pure virtual Eat function in the base class.


   —————————————————————————————————————————————
   [file 20201105°1012 project 20201105°1011] ܀Ω
