
   Project Cp15Fold2CppRef




   ————————————————————————————————————————————————————
   Filelist:
   20200823°0121 project
   20200823°0131 folding.cpp
   20200823°0141 screenshot
   ——————————————————————————————————————————
   [file 20200823°0122 proj 20200823°0121] ܀Ω
